%YAML 1.1
%TAG !u! tag:unity3d.com,2011:
--- !u!1001 &7375127338454063341
PrefabInstance:
  m_ObjectHideFlags: 0
  serializedVersion: 2
  m_Modification:
    m_TransformParent: {fileID: 0}
    m_Modifications:
    - target: {fileID: 531658819370528318, guid: fa6d4cf5a9b753240883aff04b9f707c,
        type: 3}
      propertyPath: m_Materials.Array.data[0]
      value: 
      objectReference: {fileID: 0}
    - target: {fileID: 531658819370528318, guid: fa6d4cf5a9b753240883aff04b9f707c,
        type: 3}
      propertyPath: m_Materials.Array.data[1]
      value: 
      objectReference: {fileID: 0}
    - target: {fileID: 531658819370528318, guid: fa6d4cf5a9b753240883aff04b9f707c,
        type: 3}
      propertyPath: m_Materials.Array.data[2]
      value: 
      objectReference: {fileID: 0}
    - target: {fileID: 531658819370528318, guid: fa6d4cf5a9b753240883aff04b9f707c,
        type: 3}
      propertyPath: m_Materials.Array.data[3]
      value: 
      objectReference: {fileID: 0}
    - target: {fileID: 593577061853471689, guid: fa6d4cf5a9b753240883aff04b9f707c,
        type: 3}
      propertyPath: m_LocalPosition.x
      value: 0
      objectReference: {fileID: 0}
    - target: {fileID: 593577061853471689, guid: fa6d4cf5a9b753240883aff04b9f707c,
        type: 3}
      propertyPath: m_LocalPosition.y
      value: 0
      objectReference: {fileID: 0}
    - target: {fileID: 593577061853471689, guid: fa6d4cf5a9b753240883aff04b9f707c,
        type: 3}
      propertyPath: m_LocalPosition.z
      value: 0
      objectReference: {fileID: 0}
    - target: {fileID: 593577061853471689, guid: fa6d4cf5a9b753240883aff04b9f707c,
        type: 3}
      propertyPath: m_LocalRotation.x
      value: -0
      objectReference: {fileID: 0}
    - target: {fileID: 593577061853471689, guid: fa6d4cf5a9b753240883aff04b9f707c,
        type: 3}
      propertyPath: m_LocalRotation.y
      value: -0
      objectReference: {fileID: 0}
    - target: {fileID: 593577061853471689, guid: fa6d4cf5a9b753240883aff04b9f707c,
        type: 3}
      propertyPath: m_LocalRotation.z
      value: -0
      objectReference: {fileID: 0}
    - target: {fileID: 593577061853471689, guid: fa6d4cf5a9b753240883aff04b9f707c,
        type: 3}
      propertyPath: m_LocalRotation.w
      value: 1
      objectReference: {fileID: 0}
    - target: {fileID: 593577061853471689, guid: fa6d4cf5a9b753240883aff04b9f707c,
        type: 3}
      propertyPath: m_RootOrder
      value: 0
      objectReference: {fileID: 0}
    - target: {fileID: 593577061853471689, guid: fa6d4cf5a9b753240883aff04b9f707c,
        type: 3}
      propertyPath: m_LocalEulerAnglesHint.x
      value: 0
      objectReference: {fileID: 0}
    - target: {fileID: 593577061853471689, guid: fa6d4cf5a9b753240883aff04b9f707c,
        type: 3}
      propertyPath: m_LocalEulerAnglesHint.y
      value: 0
      objectReference: {fileID: 0}
    - target: {fileID: 593577061853471689, guid: fa6d4cf5a9b753240883aff04b9f707c,
        type: 3}
      propertyPath: m_LocalEulerAnglesHint.z
      value: 0
      objectReference: {fileID: 0}
    - target: {fileID: 1284704877952530278, guid: fa6d4cf5a9b753240883aff04b9f707c,
        type: 3}
      propertyPath: m_PropertySheet.m_Vector4f.m_Array.Array.data[0].m_Value.x
      value: 0.022917405
      objectReference: {fileID: 0}
    - target: {fileID: 1284704877952530278, guid: fa6d4cf5a9b753240883aff04b9f707c,
        type: 3}
      propertyPath: m_PropertySheet.m_Vector4f.m_Array.Array.data[0].m_Value.y
      value: 0.37581652
      objectReference: {fileID: 0}
    - target: {fileID: 1284704877952530278, guid: fa6d4cf5a9b753240883aff04b9f707c,
        type: 3}
      propertyPath: m_PropertySheet.m_Vector4f.m_Array.Array.data[0].m_Value.z
      value: 0.9716981
      objectReference: {fileID: 0}
    - target: {fileID: 6393885944060041611, guid: fa6d4cf5a9b753240883aff04b9f707c,
        type: 3}
      propertyPath: m_Name
      value: SpecialItem
      objectReference: {fileID: 0}
    m_RemovedComponents: []
  m_SourcePrefab: {fileID: 100100000, guid: fa6d4cf5a9b753240883aff04b9f707c, type: 3}
