%YAML 1.1
%TAG !u! tag:unity3d.com,2011:
--- !u!1 &7379075458981456301
GameObject:
  m_ObjectHideFlags: 0
  m_CorrespondingSourceObject: {fileID: 0}
  m_PrefabInstance: {fileID: 0}
  m_PrefabAsset: {fileID: 0}
  serializedVersion: 6
  m_Component:
  - component: {fileID: 922275598247527073}
  m_Layer: 0
  m_Name: 2x150WoodWall
  m_TagString: Untagged
  m_Icon: {fileID: 0}
  m_NavMeshLayer: 0
  m_StaticEditorFlags: 0
  m_IsActive: 1
--- !u!4 &922275598247527073
Transform:
  m_ObjectHideFlags: 0
  m_CorrespondingSourceObject: {fileID: 0}
  m_PrefabInstance: {fileID: 0}
  m_PrefabAsset: {fileID: 0}
  m_GameObject: {fileID: 7379075458981456301}
  m_LocalRotation: {x: -0, y: -0, z: -0, w: 1}
  m_LocalPosition: {x: 0, y: 0, z: 0}
  m_LocalScale: {x: 1, y: 1, z: 1}
  m_Children:
  - {fileID: 288028145744026738}
  - {fileID: 7126779222729298150}
  m_Father: {fileID: 0}
  m_RootOrder: 0
  m_LocalEulerAnglesHint: {x: 0, y: 0, z: 0}
--- !u!1001 &4102860140691380370
PrefabInstance:
  m_ObjectHideFlags: 0
  serializedVersion: 2
  m_Modification:
    m_TransformParent: {fileID: 922275598247527073}
    m_Modifications:
    - target: {fileID: 4255621950760010976, guid: 5c4beb2b3e4ec1f46be0fdb73cbc9fe7,
        type: 3}
      propertyPath: m_LocalPosition.x
      value: 0
      objectReference: {fileID: 0}
    - target: {fileID: 4255621950760010976, guid: 5c4beb2b3e4ec1f46be0fdb73cbc9fe7,
        type: 3}
      propertyPath: m_LocalPosition.y
      value: 0
      objectReference: {fileID: 0}
    - target: {fileID: 4255621950760010976, guid: 5c4beb2b3e4ec1f46be0fdb73cbc9fe7,
        type: 3}
      propertyPath: m_LocalPosition.z
      value: 0
      objectReference: {fileID: 0}
    - target: {fileID: 4255621950760010976, guid: 5c4beb2b3e4ec1f46be0fdb73cbc9fe7,
        type: 3}
      propertyPath: m_LocalRotation.x
      value: -0
      objectReference: {fileID: 0}
    - target: {fileID: 4255621950760010976, guid: 5c4beb2b3e4ec1f46be0fdb73cbc9fe7,
        type: 3}
      propertyPath: m_LocalRotation.y
      value: -0
      objectReference: {fileID: 0}
    - target: {fileID: 4255621950760010976, guid: 5c4beb2b3e4ec1f46be0fdb73cbc9fe7,
        type: 3}
      propertyPath: m_LocalRotation.z
      value: -0
      objectReference: {fileID: 0}
    - target: {fileID: 4255621950760010976, guid: 5c4beb2b3e4ec1f46be0fdb73cbc9fe7,
        type: 3}
      propertyPath: m_LocalRotation.w
      value: 1
      objectReference: {fileID: 0}
    - target: {fileID: 4255621950760010976, guid: 5c4beb2b3e4ec1f46be0fdb73cbc9fe7,
        type: 3}
      propertyPath: m_RootOrder
      value: 0
      objectReference: {fileID: 0}
    - target: {fileID: 4255621950760010976, guid: 5c4beb2b3e4ec1f46be0fdb73cbc9fe7,
        type: 3}
      propertyPath: m_LocalEulerAnglesHint.x
      value: 0
      objectReference: {fileID: 0}
    - target: {fileID: 4255621950760010976, guid: 5c4beb2b3e4ec1f46be0fdb73cbc9fe7,
        type: 3}
      propertyPath: m_LocalEulerAnglesHint.y
      value: 0
      objectReference: {fileID: 0}
    - target: {fileID: 4255621950760010976, guid: 5c4beb2b3e4ec1f46be0fdb73cbc9fe7,
        type: 3}
      propertyPath: m_LocalEulerAnglesHint.z
      value: 0
      objectReference: {fileID: 0}
    - target: {fileID: 8258562683877648032, guid: 5c4beb2b3e4ec1f46be0fdb73cbc9fe7,
        type: 3}
      propertyPath: m_Name
      value: 2x128WoodWall
      objectReference: {fileID: 0}
    m_RemovedComponents: []
  m_SourcePrefab: {fileID: 100100000, guid: 5c4beb2b3e4ec1f46be0fdb73cbc9fe7, type: 3}
--- !u!4 &288028145744026738 stripped
Transform:
  m_CorrespondingSourceObject: {fileID: 4255621950760010976, guid: 5c4beb2b3e4ec1f46be0fdb73cbc9fe7,
    type: 3}
  m_PrefabInstance: {fileID: 4102860140691380370}
  m_PrefabAsset: {fileID: 0}
--- !u!1001 &4894748234835806937
PrefabInstance:
  m_ObjectHideFlags: 0
  serializedVersion: 2
  m_Modification:
    m_TransformParent: {fileID: 922275598247527073}
    m_Modifications:
    - target: {fileID: 2380931302115367487, guid: 2fb6b870bba97624d90057384248d808,
        type: 3}
      propertyPath: m_LocalPosition.x
      value: 128
      objectReference: {fileID: 0}
    - target: {fileID: 2380931302115367487, guid: 2fb6b870bba97624d90057384248d808,
        type: 3}
      propertyPath: m_LocalPosition.y
      value: 0
      objectReference: {fileID: 0}
    - target: {fileID: 2380931302115367487, guid: 2fb6b870bba97624d90057384248d808,
        type: 3}
      propertyPath: m_LocalPosition.z
      value: 0
      objectReference: {fileID: 0}
    - target: {fileID: 2380931302115367487, guid: 2fb6b870bba97624d90057384248d808,
        type: 3}
      propertyPath: m_LocalRotation.x
      value: -0
      objectReference: {fileID: 0}
    - target: {fileID: 2380931302115367487, guid: 2fb6b870bba97624d90057384248d808,
        type: 3}
      propertyPath: m_LocalRotation.y
      value: -0
      objectReference: {fileID: 0}
    - target: {fileID: 2380931302115367487, guid: 2fb6b870bba97624d90057384248d808,
        type: 3}
      propertyPath: m_LocalRotation.z
      value: -0
      objectReference: {fileID: 0}
    - target: {fileID: 2380931302115367487, guid: 2fb6b870bba97624d90057384248d808,
        type: 3}
      propertyPath: m_LocalRotation.w
      value: 1
      objectReference: {fileID: 0}
    - target: {fileID: 2380931302115367487, guid: 2fb6b870bba97624d90057384248d808,
        type: 3}
      propertyPath: m_RootOrder
      value: 1
      objectReference: {fileID: 0}
    - target: {fileID: 2380931302115367487, guid: 2fb6b870bba97624d90057384248d808,
        type: 3}
      propertyPath: m_LocalEulerAnglesHint.x
      value: 0
      objectReference: {fileID: 0}
    - target: {fileID: 2380931302115367487, guid: 2fb6b870bba97624d90057384248d808,
        type: 3}
      propertyPath: m_LocalEulerAnglesHint.y
      value: 0
      objectReference: {fileID: 0}
    - target: {fileID: 2380931302115367487, guid: 2fb6b870bba97624d90057384248d808,
        type: 3}
      propertyPath: m_LocalEulerAnglesHint.z
      value: 0
      objectReference: {fileID: 0}
    - target: {fileID: 8516775363549030266, guid: 2fb6b870bba97624d90057384248d808,
        type: 3}
      propertyPath: m_Name
      value: 2x32WoodWall
      objectReference: {fileID: 0}
    m_RemovedComponents: []
  m_SourcePrefab: {fileID: 100100000, guid: 2fb6b870bba97624d90057384248d808, type: 3}
--- !u!4 &7126779222729298150 stripped
Transform:
  m_CorrespondingSourceObject: {fileID: 2380931302115367487, guid: 2fb6b870bba97624d90057384248d808,
    type: 3}
  m_PrefabInstance: {fileID: 4894748234835806937}
  m_PrefabAsset: {fileID: 0}
