%YAML 1.1
%TAG !u! tag:unity3d.com,2011:
--- !u!1 &8516775363549030266
GameObject:
  m_ObjectHideFlags: 0
  m_CorrespondingSourceObject: {fileID: 0}
  m_PrefabInstance: {fileID: 0}
  m_PrefabAsset: {fileID: 0}
  serializedVersion: 6
  m_Component:
  - component: {fileID: 2380931302115367487}
  m_Layer: 0
  m_Name: 2x32WoodWall
  m_TagString: Untagged
  m_Icon: {fileID: 0}
  m_NavMeshLayer: 0
  m_StaticEditorFlags: 0
  m_IsActive: 1
--- !u!4 &2380931302115367487
Transform:
  m_ObjectHideFlags: 0
  m_CorrespondingSourceObject: {fileID: 0}
  m_PrefabInstance: {fileID: 0}
  m_PrefabAsset: {fileID: 0}
  m_GameObject: {fileID: 8516775363549030266}
  m_LocalRotation: {x: -0, y: -0, z: -0, w: 1}
  m_LocalPosition: {x: 0, y: 0, z: 0}
  m_LocalScale: {x: 1, y: 1, z: 1}
  m_Children:
  - {fileID: 5552170581999980451}
  - {fileID: 1042626282154770195}
  m_Father: {fileID: 0}
  m_RootOrder: 0
  m_LocalEulerAnglesHint: {x: 0, y: 0, z: 0}
--- !u!1001 &458344076636105736
PrefabInstance:
  m_ObjectHideFlags: 0
  serializedVersion: 2
  m_Modification:
    m_TransformParent: {fileID: 2380931302115367487}
    m_Modifications:
    - target: {fileID: 649709797500048165, guid: bd6b7799a55057f4d82654070f931398,
        type: 3}
      propertyPath: m_Name
      value: 2x16WoodWall
      objectReference: {fileID: 0}
    - target: {fileID: 5427145655438484395, guid: bd6b7799a55057f4d82654070f931398,
        type: 3}
      propertyPath: m_LocalPosition.x
      value: 0
      objectReference: {fileID: 0}
    - target: {fileID: 5427145655438484395, guid: bd6b7799a55057f4d82654070f931398,
        type: 3}
      propertyPath: m_LocalPosition.y
      value: 0
      objectReference: {fileID: 0}
    - target: {fileID: 5427145655438484395, guid: bd6b7799a55057f4d82654070f931398,
        type: 3}
      propertyPath: m_LocalPosition.z
      value: 0
      objectReference: {fileID: 0}
    - target: {fileID: 5427145655438484395, guid: bd6b7799a55057f4d82654070f931398,
        type: 3}
      propertyPath: m_LocalRotation.x
      value: -0
      objectReference: {fileID: 0}
    - target: {fileID: 5427145655438484395, guid: bd6b7799a55057f4d82654070f931398,
        type: 3}
      propertyPath: m_LocalRotation.y
      value: -0
      objectReference: {fileID: 0}
    - target: {fileID: 5427145655438484395, guid: bd6b7799a55057f4d82654070f931398,
        type: 3}
      propertyPath: m_LocalRotation.z
      value: -0
      objectReference: {fileID: 0}
    - target: {fileID: 5427145655438484395, guid: bd6b7799a55057f4d82654070f931398,
        type: 3}
      propertyPath: m_LocalRotation.w
      value: 1
      objectReference: {fileID: 0}
    - target: {fileID: 5427145655438484395, guid: bd6b7799a55057f4d82654070f931398,
        type: 3}
      propertyPath: m_RootOrder
      value: 0
      objectReference: {fileID: 0}
    - target: {fileID: 5427145655438484395, guid: bd6b7799a55057f4d82654070f931398,
        type: 3}
      propertyPath: m_LocalEulerAnglesHint.x
      value: 0
      objectReference: {fileID: 0}
    - target: {fileID: 5427145655438484395, guid: bd6b7799a55057f4d82654070f931398,
        type: 3}
      propertyPath: m_LocalEulerAnglesHint.y
      value: 0
      objectReference: {fileID: 0}
    - target: {fileID: 5427145655438484395, guid: bd6b7799a55057f4d82654070f931398,
        type: 3}
      propertyPath: m_LocalEulerAnglesHint.z
      value: 0
      objectReference: {fileID: 0}
    m_RemovedComponents: []
  m_SourcePrefab: {fileID: 100100000, guid: bd6b7799a55057f4d82654070f931398, type: 3}
--- !u!4 &5552170581999980451 stripped
Transform:
  m_CorrespondingSourceObject: {fileID: 5427145655438484395, guid: bd6b7799a55057f4d82654070f931398,
    type: 3}
  m_PrefabInstance: {fileID: 458344076636105736}
  m_PrefabAsset: {fileID: 0}
--- !u!1001 &4983583922851224760
PrefabInstance:
  m_ObjectHideFlags: 0
  serializedVersion: 2
  m_Modification:
    m_TransformParent: {fileID: 2380931302115367487}
    m_Modifications:
    - target: {fileID: 649709797500048165, guid: bd6b7799a55057f4d82654070f931398,
        type: 3}
      propertyPath: m_Name
      value: 2x16WoodWall (1)
      objectReference: {fileID: 0}
    - target: {fileID: 5427145655438484395, guid: bd6b7799a55057f4d82654070f931398,
        type: 3}
      propertyPath: m_LocalPosition.x
      value: 16
      objectReference: {fileID: 0}
    - target: {fileID: 5427145655438484395, guid: bd6b7799a55057f4d82654070f931398,
        type: 3}
      propertyPath: m_LocalPosition.y
      value: 0
      objectReference: {fileID: 0}
    - target: {fileID: 5427145655438484395, guid: bd6b7799a55057f4d82654070f931398,
        type: 3}
      propertyPath: m_LocalPosition.z
      value: 0
      objectReference: {fileID: 0}
    - target: {fileID: 5427145655438484395, guid: bd6b7799a55057f4d82654070f931398,
        type: 3}
      propertyPath: m_LocalRotation.x
      value: -0
      objectReference: {fileID: 0}
    - target: {fileID: 5427145655438484395, guid: bd6b7799a55057f4d82654070f931398,
        type: 3}
      propertyPath: m_LocalRotation.y
      value: -0
      objectReference: {fileID: 0}
    - target: {fileID: 5427145655438484395, guid: bd6b7799a55057f4d82654070f931398,
        type: 3}
      propertyPath: m_LocalRotation.z
      value: -0
      objectReference: {fileID: 0}
    - target: {fileID: 5427145655438484395, guid: bd6b7799a55057f4d82654070f931398,
        type: 3}
      propertyPath: m_LocalRotation.w
      value: 1
      objectReference: {fileID: 0}
    - target: {fileID: 5427145655438484395, guid: bd6b7799a55057f4d82654070f931398,
        type: 3}
      propertyPath: m_RootOrder
      value: 1
      objectReference: {fileID: 0}
    - target: {fileID: 5427145655438484395, guid: bd6b7799a55057f4d82654070f931398,
        type: 3}
      propertyPath: m_LocalEulerAnglesHint.x
      value: 0
      objectReference: {fileID: 0}
    - target: {fileID: 5427145655438484395, guid: bd6b7799a55057f4d82654070f931398,
        type: 3}
      propertyPath: m_LocalEulerAnglesHint.y
      value: 0
      objectReference: {fileID: 0}
    - target: {fileID: 5427145655438484395, guid: bd6b7799a55057f4d82654070f931398,
        type: 3}
      propertyPath: m_LocalEulerAnglesHint.z
      value: 0
      objectReference: {fileID: 0}
    m_RemovedComponents: []
  m_SourcePrefab: {fileID: 100100000, guid: bd6b7799a55057f4d82654070f931398, type: 3}
--- !u!4 &1042626282154770195 stripped
Transform:
  m_CorrespondingSourceObject: {fileID: 5427145655438484395, guid: bd6b7799a55057f4d82654070f931398,
    type: 3}
  m_PrefabInstance: {fileID: 4983583922851224760}
  m_PrefabAsset: {fileID: 0}
