%YAML 1.1
%TAG !u! tag:unity3d.com,2011:
--- !u!1 &8984190703105357183
GameObject:
  m_ObjectHideFlags: 0
  m_CorrespondingSourceObject: {fileID: 0}
  m_PrefabInstance: {fileID: 0}
  m_PrefabAsset: {fileID: 0}
  serializedVersion: 6
  m_Component:
  - component: {fileID: 4566549138723241791}
  m_Layer: 0
  m_Name: 8x8SwampTile
  m_TagString: Untagged
  m_Icon: {fileID: 0}
  m_NavMeshLayer: 0
  m_StaticEditorFlags: 0
  m_IsActive: 1
--- !u!4 &4566549138723241791
Transform:
  m_ObjectHideFlags: 0
  m_CorrespondingSourceObject: {fileID: 0}
  m_PrefabInstance: {fileID: 0}
  m_PrefabAsset: {fileID: 0}
  m_GameObject: {fileID: 8984190703105357183}
  m_LocalRotation: {x: 0, y: 0, z: 0, w: 1}
  m_LocalPosition: {x: 0, y: 0, z: 0}
  m_LocalScale: {x: 1, y: 1, z: 1}
  m_Children:
  - {fileID: 3115202035002922431}
  - {fileID: 5785694156927591786}
  - {fileID: 3264520992653910668}
  - {fileID: 3078064651850456124}
  m_Father: {fileID: 0}
  m_RootOrder: 0
  m_LocalEulerAnglesHint: {x: 0, y: 0, z: 0}
--- !u!1001 &2914386028326875166
PrefabInstance:
  m_ObjectHideFlags: 0
  serializedVersion: 2
  m_Modification:
    m_TransformParent: {fileID: 4566549138723241791}
    m_Modifications:
    - target: {fileID: 1601991984431842321, guid: 7177caf4700f8404ca65638932f74bdf,
        type: 3}
      propertyPath: m_Name
      value: 4x4SwampTile (1)
      objectReference: {fileID: 0}
    - target: {fileID: 8663536486063281524, guid: 7177caf4700f8404ca65638932f74bdf,
        type: 3}
      propertyPath: m_LocalPosition.x
      value: 0
      objectReference: {fileID: 0}
    - target: {fileID: 8663536486063281524, guid: 7177caf4700f8404ca65638932f74bdf,
        type: 3}
      propertyPath: m_LocalPosition.y
      value: 0
      objectReference: {fileID: 0}
    - target: {fileID: 8663536486063281524, guid: 7177caf4700f8404ca65638932f74bdf,
        type: 3}
      propertyPath: m_LocalPosition.z
      value: 10
      objectReference: {fileID: 0}
    - target: {fileID: 8663536486063281524, guid: 7177caf4700f8404ca65638932f74bdf,
        type: 3}
      propertyPath: m_LocalRotation.x
      value: 0
      objectReference: {fileID: 0}
    - target: {fileID: 8663536486063281524, guid: 7177caf4700f8404ca65638932f74bdf,
        type: 3}
      propertyPath: m_LocalRotation.y
      value: 0
      objectReference: {fileID: 0}
    - target: {fileID: 8663536486063281524, guid: 7177caf4700f8404ca65638932f74bdf,
        type: 3}
      propertyPath: m_LocalRotation.z
      value: 0
      objectReference: {fileID: 0}
    - target: {fileID: 8663536486063281524, guid: 7177caf4700f8404ca65638932f74bdf,
        type: 3}
      propertyPath: m_LocalRotation.w
      value: 1
      objectReference: {fileID: 0}
    - target: {fileID: 8663536486063281524, guid: 7177caf4700f8404ca65638932f74bdf,
        type: 3}
      propertyPath: m_RootOrder
      value: 1
      objectReference: {fileID: 0}
    - target: {fileID: 8663536486063281524, guid: 7177caf4700f8404ca65638932f74bdf,
        type: 3}
      propertyPath: m_LocalEulerAnglesHint.x
      value: 0
      objectReference: {fileID: 0}
    - target: {fileID: 8663536486063281524, guid: 7177caf4700f8404ca65638932f74bdf,
        type: 3}
      propertyPath: m_LocalEulerAnglesHint.y
      value: 0
      objectReference: {fileID: 0}
    - target: {fileID: 8663536486063281524, guid: 7177caf4700f8404ca65638932f74bdf,
        type: 3}
      propertyPath: m_LocalEulerAnglesHint.z
      value: 0
      objectReference: {fileID: 0}
    m_RemovedComponents: []
  m_SourcePrefab: {fileID: 100100000, guid: 7177caf4700f8404ca65638932f74bdf, type: 3}
--- !u!4 &5785694156927591786 stripped
Transform:
  m_CorrespondingSourceObject: {fileID: 8663536486063281524, guid: 7177caf4700f8404ca65638932f74bdf,
    type: 3}
  m_PrefabInstance: {fileID: 2914386028326875166}
  m_PrefabAsset: {fileID: 0}
--- !u!1001 &5948247913351842120
PrefabInstance:
  m_ObjectHideFlags: 0
  serializedVersion: 2
  m_Modification:
    m_TransformParent: {fileID: 4566549138723241791}
    m_Modifications:
    - target: {fileID: 1601991984431842321, guid: 7177caf4700f8404ca65638932f74bdf,
        type: 3}
      propertyPath: m_Name
      value: 4x4SwampTile (3)
      objectReference: {fileID: 0}
    - target: {fileID: 8663536486063281524, guid: 7177caf4700f8404ca65638932f74bdf,
        type: 3}
      propertyPath: m_LocalPosition.x
      value: 10
      objectReference: {fileID: 0}
    - target: {fileID: 8663536486063281524, guid: 7177caf4700f8404ca65638932f74bdf,
        type: 3}
      propertyPath: m_LocalPosition.y
      value: 0
      objectReference: {fileID: 0}
    - target: {fileID: 8663536486063281524, guid: 7177caf4700f8404ca65638932f74bdf,
        type: 3}
      propertyPath: m_LocalPosition.z
      value: 0
      objectReference: {fileID: 0}
    - target: {fileID: 8663536486063281524, guid: 7177caf4700f8404ca65638932f74bdf,
        type: 3}
      propertyPath: m_LocalRotation.x
      value: 0
      objectReference: {fileID: 0}
    - target: {fileID: 8663536486063281524, guid: 7177caf4700f8404ca65638932f74bdf,
        type: 3}
      propertyPath: m_LocalRotation.y
      value: 0
      objectReference: {fileID: 0}
    - target: {fileID: 8663536486063281524, guid: 7177caf4700f8404ca65638932f74bdf,
        type: 3}
      propertyPath: m_LocalRotation.z
      value: 0
      objectReference: {fileID: 0}
    - target: {fileID: 8663536486063281524, guid: 7177caf4700f8404ca65638932f74bdf,
        type: 3}
      propertyPath: m_LocalRotation.w
      value: 1
      objectReference: {fileID: 0}
    - target: {fileID: 8663536486063281524, guid: 7177caf4700f8404ca65638932f74bdf,
        type: 3}
      propertyPath: m_RootOrder
      value: 3
      objectReference: {fileID: 0}
    - target: {fileID: 8663536486063281524, guid: 7177caf4700f8404ca65638932f74bdf,
        type: 3}
      propertyPath: m_LocalEulerAnglesHint.x
      value: 0
      objectReference: {fileID: 0}
    - target: {fileID: 8663536486063281524, guid: 7177caf4700f8404ca65638932f74bdf,
        type: 3}
      propertyPath: m_LocalEulerAnglesHint.y
      value: 0
      objectReference: {fileID: 0}
    - target: {fileID: 8663536486063281524, guid: 7177caf4700f8404ca65638932f74bdf,
        type: 3}
      propertyPath: m_LocalEulerAnglesHint.z
      value: 0
      objectReference: {fileID: 0}
    m_RemovedComponents: []
  m_SourcePrefab: {fileID: 100100000, guid: 7177caf4700f8404ca65638932f74bdf, type: 3}
--- !u!4 &3078064651850456124 stripped
Transform:
  m_CorrespondingSourceObject: {fileID: 8663536486063281524, guid: 7177caf4700f8404ca65638932f74bdf,
    type: 3}
  m_PrefabInstance: {fileID: 5948247913351842120}
  m_PrefabAsset: {fileID: 0}
--- !u!1001 &5980915780053385419
PrefabInstance:
  m_ObjectHideFlags: 0
  serializedVersion: 2
  m_Modification:
    m_TransformParent: {fileID: 4566549138723241791}
    m_Modifications:
    - target: {fileID: 1601991984431842321, guid: 7177caf4700f8404ca65638932f74bdf,
        type: 3}
      propertyPath: m_Name
      value: 4x4SwampTile
      objectReference: {fileID: 0}
    - target: {fileID: 8663536486063281524, guid: 7177caf4700f8404ca65638932f74bdf,
        type: 3}
      propertyPath: m_LocalPosition.x
      value: 10
      objectReference: {fileID: 0}
    - target: {fileID: 8663536486063281524, guid: 7177caf4700f8404ca65638932f74bdf,
        type: 3}
      propertyPath: m_LocalPosition.y
      value: 0
      objectReference: {fileID: 0}
    - target: {fileID: 8663536486063281524, guid: 7177caf4700f8404ca65638932f74bdf,
        type: 3}
      propertyPath: m_LocalPosition.z
      value: 10
      objectReference: {fileID: 0}
    - target: {fileID: 8663536486063281524, guid: 7177caf4700f8404ca65638932f74bdf,
        type: 3}
      propertyPath: m_LocalRotation.x
      value: 0
      objectReference: {fileID: 0}
    - target: {fileID: 8663536486063281524, guid: 7177caf4700f8404ca65638932f74bdf,
        type: 3}
      propertyPath: m_LocalRotation.y
      value: 0
      objectReference: {fileID: 0}
    - target: {fileID: 8663536486063281524, guid: 7177caf4700f8404ca65638932f74bdf,
        type: 3}
      propertyPath: m_LocalRotation.z
      value: 0
      objectReference: {fileID: 0}
    - target: {fileID: 8663536486063281524, guid: 7177caf4700f8404ca65638932f74bdf,
        type: 3}
      propertyPath: m_LocalRotation.w
      value: 1
      objectReference: {fileID: 0}
    - target: {fileID: 8663536486063281524, guid: 7177caf4700f8404ca65638932f74bdf,
        type: 3}
      propertyPath: m_RootOrder
      value: 0
      objectReference: {fileID: 0}
    - target: {fileID: 8663536486063281524, guid: 7177caf4700f8404ca65638932f74bdf,
        type: 3}
      propertyPath: m_LocalEulerAnglesHint.x
      value: 0
      objectReference: {fileID: 0}
    - target: {fileID: 8663536486063281524, guid: 7177caf4700f8404ca65638932f74bdf,
        type: 3}
      propertyPath: m_LocalEulerAnglesHint.y
      value: 0
      objectReference: {fileID: 0}
    - target: {fileID: 8663536486063281524, guid: 7177caf4700f8404ca65638932f74bdf,
        type: 3}
      propertyPath: m_LocalEulerAnglesHint.z
      value: 0
      objectReference: {fileID: 0}
    m_RemovedComponents: []
  m_SourcePrefab: {fileID: 100100000, guid: 7177caf4700f8404ca65638932f74bdf, type: 3}
--- !u!4 &3115202035002922431 stripped
Transform:
  m_CorrespondingSourceObject: {fileID: 8663536486063281524, guid: 7177caf4700f8404ca65638932f74bdf,
    type: 3}
  m_PrefabInstance: {fileID: 5980915780053385419}
  m_PrefabAsset: {fileID: 0}
--- !u!1001 &6158382235172026360
PrefabInstance:
  m_ObjectHideFlags: 0
  serializedVersion: 2
  m_Modification:
    m_TransformParent: {fileID: 4566549138723241791}
    m_Modifications:
    - target: {fileID: 1601991984431842321, guid: 7177caf4700f8404ca65638932f74bdf,
        type: 3}
      propertyPath: m_Name
      value: 4x4SwampTile (2)
      objectReference: {fileID: 0}
    - target: {fileID: 8663536486063281524, guid: 7177caf4700f8404ca65638932f74bdf,
        type: 3}
      propertyPath: m_LocalPosition.x
      value: 0
      objectReference: {fileID: 0}
    - target: {fileID: 8663536486063281524, guid: 7177caf4700f8404ca65638932f74bdf,
        type: 3}
      propertyPath: m_LocalPosition.y
      value: 0
      objectReference: {fileID: 0}
    - target: {fileID: 8663536486063281524, guid: 7177caf4700f8404ca65638932f74bdf,
        type: 3}
      propertyPath: m_LocalPosition.z
      value: 0
      objectReference: {fileID: 0}
    - target: {fileID: 8663536486063281524, guid: 7177caf4700f8404ca65638932f74bdf,
        type: 3}
      propertyPath: m_LocalRotation.x
      value: 0
      objectReference: {fileID: 0}
    - target: {fileID: 8663536486063281524, guid: 7177caf4700f8404ca65638932f74bdf,
        type: 3}
      propertyPath: m_LocalRotation.y
      value: 0
      objectReference: {fileID: 0}
    - target: {fileID: 8663536486063281524, guid: 7177caf4700f8404ca65638932f74bdf,
        type: 3}
      propertyPath: m_LocalRotation.z
      value: 0
      objectReference: {fileID: 0}
    - target: {fileID: 8663536486063281524, guid: 7177caf4700f8404ca65638932f74bdf,
        type: 3}
      propertyPath: m_LocalRotation.w
      value: 1
      objectReference: {fileID: 0}
    - target: {fileID: 8663536486063281524, guid: 7177caf4700f8404ca65638932f74bdf,
        type: 3}
      propertyPath: m_RootOrder
      value: 2
      objectReference: {fileID: 0}
    - target: {fileID: 8663536486063281524, guid: 7177caf4700f8404ca65638932f74bdf,
        type: 3}
      propertyPath: m_LocalEulerAnglesHint.x
      value: 0
      objectReference: {fileID: 0}
    - target: {fileID: 8663536486063281524, guid: 7177caf4700f8404ca65638932f74bdf,
        type: 3}
      propertyPath: m_LocalEulerAnglesHint.y
      value: 0
      objectReference: {fileID: 0}
    - target: {fileID: 8663536486063281524, guid: 7177caf4700f8404ca65638932f74bdf,
        type: 3}
      propertyPath: m_LocalEulerAnglesHint.z
      value: 0
      objectReference: {fileID: 0}
    m_RemovedComponents: []
  m_SourcePrefab: {fileID: 100100000, guid: 7177caf4700f8404ca65638932f74bdf, type: 3}
--- !u!4 &3264520992653910668 stripped
Transform:
  m_CorrespondingSourceObject: {fileID: 8663536486063281524, guid: 7177caf4700f8404ca65638932f74bdf,
    type: 3}
  m_PrefabInstance: {fileID: 6158382235172026360}
  m_PrefabAsset: {fileID: 0}
