%YAML 1.1
%TAG !u! tag:unity3d.com,2011:
--- !u!1 &7671750688223856456
GameObject:
  m_ObjectHideFlags: 0
  m_CorrespondingSourceObject: {fileID: 0}
  m_PrefabInstance: {fileID: 0}
  m_PrefabAsset: {fileID: 0}
  serializedVersion: 6
  m_Component:
  - component: {fileID: 7671750688223856457}
  - component: {fileID: 4421367377043932041}
  - component: {fileID: -5050081000585388498}
  m_Layer: 0
  m_Name: FireballSector
  m_TagString: Untagged
  m_Icon: {fileID: 0}
  m_NavMeshLayer: 0
  m_StaticEditorFlags: 0
  m_IsActive: 1
--- !u!4 &7671750688223856457
Transform:
  m_ObjectHideFlags: 0
  m_CorrespondingSourceObject: {fileID: 0}
  m_PrefabInstance: {fileID: 0}
  m_PrefabAsset: {fileID: 0}
  m_GameObject: {fileID: 7671750688223856456}
  m_LocalRotation: {x: 0, y: 0, z: 0, w: 1}
  m_LocalPosition: {x: 0, y: 0, z: 0.5}
  m_LocalScale: {x: 1, y: 1, z: 1}
  m_Children: []
  m_Father: {fileID: 0}
  m_RootOrder: 0
  m_LocalEulerAnglesHint: {x: 0, y: 0, z: 0}
--- !u!114 &4421367377043932041
MonoBehaviour:
  m_ObjectHideFlags: 0
  m_CorrespondingSourceObject: {fileID: 0}
  m_PrefabInstance: {fileID: 0}
  m_PrefabAsset: {fileID: 0}
  m_GameObject: {fileID: 7671750688223856456}
  m_Enabled: 1
  m_EditorHideFlags: 0
  m_Script: {fileID: 11500000, guid: 2558819b9ca19a1468bbf92d12349ea3, type: 3}
  m_Name: 
  m_EditorClassIdentifier: 
  _hitTarget: 0
  _casting: 0
  _castingTime: 0
  useEffects: []
  AudioSource: {fileID: 0}
  StartTime: 1
  StopTime: 3
  Duration: 2
  ManualParticleSystems: []
  _operateType: 0
  _range: 5
  _degree: 90
  _projectile_prefab: {fileID: 121802, guid: 173a609848a659b4a9e2e891d21cd3c0, type: 3}
  _projectile_count: 3
  _area_operatePeriod: 1
--- !u!114 &-5050081000585388498
MonoBehaviour:
  m_ObjectHideFlags: 0
  m_CorrespondingSourceObject: {fileID: 0}
  m_PrefabInstance: {fileID: 0}
  m_PrefabAsset: {fileID: 0}
  m_GameObject: {fileID: 7671750688223856456}
  m_Enabled: 1
  m_EditorHideFlags: 0
  m_Script: {fileID: 11500000, guid: 73b7c39829b651b4b9006130854546d1, type: 3}
  m_Name: 
  m_EditorClassIdentifier: 
  IsUseEffectName: 0
  EffectName: 
  instantEffect:
    hpChange:
      isHeal: 0
      isTrueDamage: 0
      fixedAmount: 0
      enhancePercentRate: 0
      ratioType: 0
      ratioPercent: 0
    isCleanse: 0
  persistEffect:
    time: 0
    id: 0
    TickHpChange:
      isHeal: 0
      isTrueDamage: 0
      fixedAmount: 0
      enhancePercentRate: 0
      ratioType: 0
      ratioPercent: 0
    TickPeriod: 0
    changeAbilities: []
    increaseStack: 0
    maxStack: 0
    stackAccumulateEffect:
      threshold: 0
      thresholdAdd: 0
      effect: {fileID: 0}
  conditionalEffect:
    conditionEffectId: 0
    isRelationStack: 0
    stackBonusRate: 0
    effect: {fileID: 0}
