%YAML 1.1
%TAG !u! tag:unity3d.com,2011:
--- !u!1001 &6627804354837531938
PrefabInstance:
  m_ObjectHideFlags: 0
  serializedVersion: 2
  m_Modification:
    m_TransformParent: {fileID: 0}
    m_Modifications:
    - target: {fileID: 138410, guid: 08393047f3f0b4540967680ca47cccb4, type: 3}
      propertyPath: m_Name
      value: GroundExplode Variant
      objectReference: {fileID: 0}
    - target: {fileID: 439972, guid: 08393047f3f0b4540967680ca47cccb4, type: 3}
      propertyPath: m_LocalPosition.x
      value: 110
      objectReference: {fileID: 0}
    - target: {fileID: 439972, guid: 08393047f3f0b4540967680ca47cccb4, type: 3}
      propertyPath: m_LocalPosition.y
      value: 0
      objectReference: {fileID: 0}
    - target: {fileID: 439972, guid: 08393047f3f0b4540967680ca47cccb4, type: 3}
      propertyPath: m_LocalPosition.z
      value: 0
      objectReference: {fileID: 0}
    - target: {fileID: 439972, guid: 08393047f3f0b4540967680ca47cccb4, type: 3}
      propertyPath: m_LocalRotation.x
      value: -0.7071068
      objectReference: {fileID: 0}
    - target: {fileID: 439972, guid: 08393047f3f0b4540967680ca47cccb4, type: 3}
      propertyPath: m_LocalRotation.y
      value: 0
      objectReference: {fileID: 0}
    - target: {fileID: 439972, guid: 08393047f3f0b4540967680ca47cccb4, type: 3}
      propertyPath: m_LocalRotation.z
      value: 0
      objectReference: {fileID: 0}
    - target: {fileID: 439972, guid: 08393047f3f0b4540967680ca47cccb4, type: 3}
      propertyPath: m_LocalRotation.w
      value: 0.7071068
      objectReference: {fileID: 0}
    - target: {fileID: 439972, guid: 08393047f3f0b4540967680ca47cccb4, type: 3}
      propertyPath: m_RootOrder
      value: 0
      objectReference: {fileID: 0}
    - target: {fileID: 19870642, guid: 08393047f3f0b4540967680ca47cccb4, type: 3}
      propertyPath: InitialModule.startSizeY.minMaxState
      value: 1
      objectReference: {fileID: 0}
    - target: {fileID: 19870642, guid: 08393047f3f0b4540967680ca47cccb4, type: 3}
      propertyPath: InitialModule.startSizeZ.minMaxState
      value: 1
      objectReference: {fileID: 0}
    - target: {fileID: 19885208, guid: 08393047f3f0b4540967680ca47cccb4, type: 3}
      propertyPath: InitialModule.startSizeY.minMaxState
      value: 3
      objectReference: {fileID: 0}
    - target: {fileID: 19885208, guid: 08393047f3f0b4540967680ca47cccb4, type: 3}
      propertyPath: InitialModule.startSizeZ.minMaxState
      value: 3
      objectReference: {fileID: 0}
    m_RemovedComponents: []
  m_SourcePrefab: {fileID: 100100000, guid: 08393047f3f0b4540967680ca47cccb4, type: 3}
