%YAML 1.1
%TAG !u! tag:unity3d.com,2011:
--- !u!1001 &7305961457496271817
PrefabInstance:
  m_ObjectHideFlags: 0
  serializedVersion: 2
  m_Modification:
    m_TransformParent: {fileID: 0}
    m_Modifications:
    - target: {fileID: 2511083012574916640, guid: 2b8c4f144e26c7d4f9752d318618b4d4,
        type: 3}
      propertyPath: m_Materials.Array.data[0]
      value: 
      objectReference: {fileID: 0}
    - target: {fileID: 2511083012574916640, guid: 2b8c4f144e26c7d4f9752d318618b4d4,
        type: 3}
      propertyPath: m_Materials.Array.data[1]
      value: 
      objectReference: {fileID: 0}
    - target: {fileID: 2511083012574916640, guid: 2b8c4f144e26c7d4f9752d318618b4d4,
        type: 3}
      propertyPath: m_Materials.Array.data[2]
      value: 
      objectReference: {fileID: 0}
    - target: {fileID: 2511083012574916640, guid: 2b8c4f144e26c7d4f9752d318618b4d4,
        type: 3}
      propertyPath: m_Materials.Array.data[3]
      value: 
      objectReference: {fileID: 0}
    - target: {fileID: 3280084401066327511, guid: 2b8c4f144e26c7d4f9752d318618b4d4,
        type: 3}
      propertyPath: m_LocalPosition.x
      value: 0
      objectReference: {fileID: 0}
    - target: {fileID: 3280084401066327511, guid: 2b8c4f144e26c7d4f9752d318618b4d4,
        type: 3}
      propertyPath: m_LocalPosition.y
      value: 0
      objectReference: {fileID: 0}
    - target: {fileID: 3280084401066327511, guid: 2b8c4f144e26c7d4f9752d318618b4d4,
        type: 3}
      propertyPath: m_LocalPosition.z
      value: 0
      objectReference: {fileID: 0}
    - target: {fileID: 3280084401066327511, guid: 2b8c4f144e26c7d4f9752d318618b4d4,
        type: 3}
      propertyPath: m_LocalRotation.x
      value: -0
      objectReference: {fileID: 0}
    - target: {fileID: 3280084401066327511, guid: 2b8c4f144e26c7d4f9752d318618b4d4,
        type: 3}
      propertyPath: m_LocalRotation.y
      value: -0
      objectReference: {fileID: 0}
    - target: {fileID: 3280084401066327511, guid: 2b8c4f144e26c7d4f9752d318618b4d4,
        type: 3}
      propertyPath: m_LocalRotation.z
      value: -0
      objectReference: {fileID: 0}
    - target: {fileID: 3280084401066327511, guid: 2b8c4f144e26c7d4f9752d318618b4d4,
        type: 3}
      propertyPath: m_LocalRotation.w
      value: 1
      objectReference: {fileID: 0}
    - target: {fileID: 3280084401066327511, guid: 2b8c4f144e26c7d4f9752d318618b4d4,
        type: 3}
      propertyPath: m_RootOrder
      value: 0
      objectReference: {fileID: 0}
    - target: {fileID: 3280084401066327511, guid: 2b8c4f144e26c7d4f9752d318618b4d4,
        type: 3}
      propertyPath: m_LocalEulerAnglesHint.x
      value: 0
      objectReference: {fileID: 0}
    - target: {fileID: 3280084401066327511, guid: 2b8c4f144e26c7d4f9752d318618b4d4,
        type: 3}
      propertyPath: m_LocalEulerAnglesHint.y
      value: 0
      objectReference: {fileID: 0}
    - target: {fileID: 3280084401066327511, guid: 2b8c4f144e26c7d4f9752d318618b4d4,
        type: 3}
      propertyPath: m_LocalEulerAnglesHint.z
      value: 0
      objectReference: {fileID: 0}
    - target: {fileID: 7909972559876151416, guid: 2b8c4f144e26c7d4f9752d318618b4d4,
        type: 3}
      propertyPath: equipStat.equipAbilities.Array.size
      value: 1
      objectReference: {fileID: 0}
    - target: {fileID: 7909972559876151416, guid: 2b8c4f144e26c7d4f9752d318618b4d4,
        type: 3}
      propertyPath: equipStat._itemName
      value: "\uAC00\uC8FD \uC2E0\uBC1C"
      objectReference: {fileID: 0}
    - target: {fileID: 7909972559876151416, guid: 2b8c4f144e26c7d4f9752d318618b4d4,
        type: 3}
      propertyPath: equipStat._itemCode
      value: 1106
      objectReference: {fileID: 0}
    - target: {fileID: 7909972559876151416, guid: 2b8c4f144e26c7d4f9752d318618b4d4,
        type: 3}
      propertyPath: equipStat.equipAbilities.Array.data[0].equipEffect
      value: 5
      objectReference: {fileID: 0}
    - target: {fileID: 7909972559876151416, guid: 2b8c4f144e26c7d4f9752d318618b4d4,
        type: 3}
      propertyPath: equipStat.equipAbilities.Array.data[0].value
      value: 15
      objectReference: {fileID: 0}
    - target: {fileID: 9007860270714636181, guid: 2b8c4f144e26c7d4f9752d318618b4d4,
        type: 3}
      propertyPath: m_Name
      value: "\uAC00\uC8FD \uC2E0\uBC1C"
      objectReference: {fileID: 0}
    m_RemovedComponents: []
  m_SourcePrefab: {fileID: 100100000, guid: 2b8c4f144e26c7d4f9752d318618b4d4, type: 3}
